{
  "cordova-sqlite-storage": {
    "source": {
      "type": "registry",
      "id": "cordova-sqlite-storage@^3.2.1"
    },
    "is_top_level": true,
    "variables": {}
  },
  "cordova-plugin-geolocation": {
    "source": {
      "type": "registry",
      "id": "cordova-plugin-geolocation@4.0.2"
    },
    "is_top_level": true,
    "variables": {}
  },
  "cordova-plugin-whitelist": {
    "source": {
      "type": "registry",
      "id": "cordova-plugin-whitelist@1.3.3"
    },
    "is_top_level": true,
    "variables": {}
  },
  "cordova-plugin-statusbar": {
    "source": {
      "type": "registry",
      "id": "cordova-plugin-statusbar@2.4.2"
    },
    "is_top_level": true,
    "variables": {}
  },
  "cordova-plugin-device": {
    "source": {
      "type": "registry",
      "id": "cordova-plugin-device@2.0.2"
    },
    "is_top_level": true,
    "variables": {}
  },
  "cordova-plugin-splashscreen": {
    "source": {
      "type": "registry",
      "id": "cordova-plugin-splashscreen@5.0.2"
    },
    "is_top_level": true,
    "variables": {}
  },
  "cordova-plugin-ionic-webview": {
    "source": {
      "type": "registry",
      "id": "cordova-plugin-ionic-webview@^4.0.0"
    },
    "is_top_level": true,
    "variables": {}
  },
  "cordova-plugin-ionic-keyboard": {
    "source": {
      "type": "registry",
      "id": "cordova-plugin-ionic-keyboard@^2.0.5"
    },
    "is_top_level": true,
    "variables": {}
  },
  "cordova-plugin-compat": {
    "source": {
      "type": "registry",
      "id": "cordova-plugin-compat@^1.0.0"
    },
    "is_top_level": false,
    "variables": {}
  },
  "es6-promise-plugin": {
    "source": {
      "type": "registry",
      "id": "es6-promise-plugin"
    },
    "is_top_level": false,
    "variables": {}
  },
  "cordova-plugin-local-notification": {
    "source": {
      "type": "registry",
      "id": "cordova-plugin-local-notification@^0.9.0-beta.2"
    },
    "is_top_level": true,
    "variables": {}
  },
  "cordova-plugin-badge": {
    "source": {
      "type": "registry",
      "id": "cordova-plugin-badge@>=0.8.5"
    },
    "is_top_level": false,
    "variables": {}
  },
  "phonegap-plugin-local-notification": {
    "source": {
      "type": "registry",
      "id": "phonegap-plugin-local-notification@^1.0.1"
    },
    "is_top_level": true,
    "variables": {}
  },
  "cordova-plugin-firebasex": {
    "source": {
      "type": "registry",
      "id": "cordova-plugin-firebasex@^6.0.2"
    },
    "is_top_level": true,
    "variables": {}
  },
  "cordova-plugin-androidx": {
    "source": {
      "type": "registry",
      "id": "cordova-plugin-androidx@^1.0.2"
    },
    "is_top_level": false,
    "variables": {}
  },
  "cordova-plugin-androidx-adapter": {
    "source": {
      "type": "registry",
      "id": "cordova-plugin-androidx-adapter@^1.1.0"
    },
    "is_top_level": false,
    "variables": {}
  },
  "cordova-plugin-geofence": {
    "source": {
      "type": "registry",
      "id": "cordova-plugin-geofence@^0.7.0"
    },
    "is_top_level": true,
    "variables": {}
  },
  "cordova-plugin-ios-in-app-ratings-and-reviews": {
    "source": {
      "type": "registry",
      "id": "cordova-plugin-ios-in-app-ratings-and-reviews"
    },
    "is_top_level": true,
    "variables": {}
  }
}