[
    { "id": 1, "distance": 303 },
    { "id": 2, "distance": 1278.14042385 },
    { "id": 3, "distance": 3031.58016033 },
    { "id": 4, "distance": 127.14042385 },
    { "id": 5, "distance": 690.58016033 },
    { "id": 6, "distance": 882.14042385 },
    { "id": 7, "distance": 60.58016033 },
    { "id": 8, "distance": 2082.14042385 }
]